<svg xmlns="http://www.w3.org/2000/svg" width="30" height="30" viewBox="0 0 30 30">
  <g id="Suggestion" transform="translate(-298 -83)">
    <rect id="Rectangle_3410" data-name="Rectangle 3410" width="30" height="30" transform="translate(298 83)" fill="none"/>
    <g id="_008-suggestion" data-name="008-suggestion" transform="translate(301 86)">
      <path id="Path_13806" data-name="Path 13806" d="M112,360.847h5.079v.846H112v1.27h6.349V360H112Zm0,0" transform="translate(-106.074 -340.953)" fill="#fff"/>
      <path id="Path_13807" data-name="Path 13807" d="M226.54,157.5h7.2a.4.4,0,0,0,.423-.423V152h-3.809v.847a1.27,1.27,0,0,1-2.54,0V152H224v1.735a1.4,1.4,0,0,1,.55.3l1.609,1.609a1.218,1.218,0,0,1,.381.889Zm0,0" transform="translate(-212.149 -143.958)" fill="#fff"/>
      <path id="Path_13808" data-name="Path 13808" d="M129.693,202.159V200H128v2.116h1.27C129.4,202.117,129.566,202.159,129.693,202.159Zm0,0" transform="translate(-121.228 -189.419)" fill="#fff"/>
      <path id="Path_13809" data-name="Path 13809" d="M112,432h6.349v.847H112Zm0,0" transform="translate(-106.074 -409.144)" fill="#fff"/>
      <path id="Path_13810" data-name="Path 13810" d="M81.693,103.661V96.847a.847.847,0,1,0-1.693,0V104.8l1.227-.889a1.009,1.009,0,0,1,.466-.254Zm0,0" transform="translate(-75.767 -90.921)" fill="#fff"/>
      <path id="Path_13811" data-name="Path 13811" d="M73.416,200.169v2.794H72.57V200H70.877v2.709a1.675,1.675,0,0,1-.127,2.37,1.806,1.806,0,0,1-1.143.423h-1.1l-.719.72-.593-.593.974-.973h1.439a.847.847,0,0,0,0-1.693h-1.82a.6.6,0,0,0-.254.085l-2.37,1.778a.455.455,0,0,0-.085.593l.042.042,2.159,2.159h6.857l.889-.889a.384.384,0,0,0,.127-.3v-4.4a.384.384,0,0,0-.127-.3Zm0,0" transform="translate(-61.565 -189.418)" fill="#fff"/>
      <path id="Path_13812" data-name="Path 13812" d="M224,112.423v.847h10.158v-.847a.4.4,0,0,0-.423-.423h-9.312A.4.4,0,0,0,224,112.423Zm0,0" transform="translate(-212.149 -106.074)" fill="#fff"/>
      <path id="Path_13813" data-name="Path 13813" d="M122.624,0h-18.2A.4.4,0,0,0,104,.423V4.275a1.679,1.679,0,0,1,1.27,1.651V9.735H109.5V6.349a1.247,1.247,0,0,1,1.27-1.27h2.963V4.233A1.247,1.247,0,0,1,115,2.963h.847a1.247,1.247,0,0,1,1.27,1.27v.847h2.963a1.247,1.247,0,0,1,1.27,1.27v6.772a1.247,1.247,0,0,1-1.27,1.27h-7.2v2.624a.825.825,0,0,1-.042.339h2.794l1.481,1.862,1.481-1.862h4.021a.4.4,0,0,0,.423-.423V.423A.4.4,0,0,0,122.624,0Zm-17.65,3.513,1.693-1.693.593.593-1.693,1.693Zm3.682,2.413h-2.54V5.079h2.54Zm0,0" transform="translate(-98.498)" fill="#fff"/>
      <path id="Path_13814" data-name="Path 13814" d="M312.423,153.27a.4.4,0,0,0,.423-.423V152H312v.847A.4.4,0,0,0,312.423,153.27Zm0,0" transform="translate(-295.493 -143.958)" fill="#fff"/>
      <path id="Path_13815" data-name="Path 13815" d="M305.27,72h-.846a.4.4,0,0,0-.423.423v.847h1.693v-.847A.4.4,0,0,0,305.27,72Zm0,0" transform="translate(-287.916 -68.191)" fill="#fff"/>
      <path id="Path_13816" data-name="Path 13816" d="M0,96H2.54v.847H0Zm0,0" transform="translate(0 -90.921)" fill="#fff"/>
      <path id="Path_13817" data-name="Path 13817" d="M26.5,35.1l.6-.6,1.706,1.706-.6.6Zm0,0" transform="translate(-25.102 -32.678)" fill="#fff"/>
    </g>
  </g>
</svg>
