<svg xmlns="http://www.w3.org/2000/svg" width="408.41" height="229.342" viewBox="0 0 408.41 229.342">
  <g id="Group_59624" data-name="Group 59624" transform="translate(12588.001 996.719)">
    <path id="Path_8569" data-name="Path 8569" d="M97.059,237.629q0,12.915-3.229,21.956a38.212,38.212,0,0,1-9.543,15.14A45.09,45.09,0,0,1,68.574,284.2a105.781,105.781,0,0,1-21.884,5.094c-2.153.359-3.372-.287-3.588-2.081l-1.937-14.35a2.579,2.579,0,0,1,2.3-3.014,127.5,127.5,0,0,0,12.772-2.727,32.628,32.628,0,0,0,9.83-4.377,18.845,18.845,0,0,0,6.242-6.816,21.536,21.536,0,0,0,2.153-10.117v-1.148a71.718,71.718,0,0,1-11.839,2.583,87.081,87.081,0,0,1-11.624.861c-7.462,0-13.92-1.22-19.3-3.659a34.977,34.977,0,0,1-13.418-10.332,44.726,44.726,0,0,1-7.893-15.785A75.04,75.04,0,0,1,7.8,197.95a72.652,72.652,0,0,1,2.87-21.023,44.576,44.576,0,0,1,8.682-16.575A41.649,41.649,0,0,1,34.2,149.446c6.027-2.655,13.131-3.946,21.525-3.946a141.77,141.77,0,0,1,19.66,1.435,67.805,67.805,0,0,1,18.584,5.238,5.131,5.131,0,0,1,2.44,2.009,5.717,5.717,0,0,1,.574,2.583v80.864ZM30.545,196.874c0,11.122,2.153,19.3,6.458,24.467s10.26,7.749,17.794,7.749c2.009,0,4.807-.215,8.395-.574a67.657,67.657,0,0,0,11.48-2.3V166.236a57.358,57.358,0,0,0-9.4-1.866,79.735,79.735,0,0,0-8.61-.574,29.849,29.849,0,0,0-10.691,1.794,20.533,20.533,0,0,0-8.251,5.668,26.811,26.811,0,0,0-5.31,10.189A55.984,55.984,0,0,0,30.545,196.874Z" transform="translate(-12595.801 -1056.762)" fill="#fff"/>
    <path id="Path_8570" data-name="Path 8570" d="M185.4,144.9q21.741,0,32.288,11.193c7.032,7.462,10.476,17.651,10.476,30.638a23.411,23.411,0,0,1-1.148,8.108,12.463,12.463,0,0,1-3.229,5.094,11.35,11.35,0,0,1-4.807,2.655,22.54,22.54,0,0,1-5.955.789h-50.37a34.2,34.2,0,0,0,2.3,12.413,21.134,21.134,0,0,0,5.668,8.108,20.777,20.777,0,0,0,8.323,4.449,38.63,38.63,0,0,0,10.261,1.292,47.546,47.546,0,0,0,11.911-1.507,58.7,58.7,0,0,0,10.26-3.588c2.009-.861,3.372-.5,4.162,1.148l5.094,10.763c.861,2.009.43,3.444-1.292,4.377a47.976,47.976,0,0,1-15.714,6.027,82.26,82.26,0,0,1-16.288,1.722q-22.925,0-35.015-12.341C144.218,228.06,140.2,215,140.2,197.207a68.662,68.662,0,0,1,3.372-22.243,48.681,48.681,0,0,1,9.4-16.5A39.96,39.96,0,0,1,167.25,148.2,49.794,49.794,0,0,1,185.4,144.9Zm.43,18.368a19.793,19.793,0,0,0-9.112,2.009,20.817,20.817,0,0,0-6.816,5.381,29.682,29.682,0,0,0-4.52,7.749,26.142,26.142,0,0,0-1.866,9.112h43.553a44.175,44.175,0,0,0-.933-9.471,21.135,21.135,0,0,0-3.3-7.677,16.18,16.18,0,0,0-6.458-5.238A26.446,26.446,0,0,0,185.834,163.268Z" transform="translate(-12633.201 -1056.593)" fill="#fff"/>
    <path id="Path_8571" data-name="Path 8571" d="M305.752,163.842c-1.363,0-3.372,0-5.955.072a56.962,56.962,0,0,0-8.969,1.076v78.353c0,1.363-.287,2.3-.789,2.655a5.2,5.2,0,0,1-2.87.574H272.388a5.139,5.139,0,0,1-2.727-.574c-.574-.359-.861-1.292-.861-2.655V162.336c0-4.52.789-8.108,2.44-10.619s5.023-4.233,10.189-5.094c1.292-.143,2.942-.287,5.094-.574s4.377-.431,6.816-.574c2.368-.143,4.736-.287,6.96-.359,2.3-.144,4.233-.215,5.884-.215a76.95,76.95,0,0,1,21.6,2.655,36.584,36.584,0,0,1,15.14,8.395,34.78,34.78,0,0,1,8.754,15.068,77.892,77.892,0,0,1,2.8,22.315v50.011c0,1.363-.215,2.3-.717,2.655a5.08,5.08,0,0,1-2.8.574H336.1a5.32,5.32,0,0,1-2.727-.574c-.574-.359-.861-1.292-.861-2.655v-50.37a60.972,60.972,0,0,0-1.22-12.844,21.034,21.034,0,0,0-4.233-9.112,18.419,18.419,0,0,0-8.251-5.381A39.234,39.234,0,0,0,305.752,163.842Z" transform="translate(-12669.529 -1056.593)" fill="#fff"/>
    <path id="Path_8572" data-name="Path 8572" d="M499.547,144.9q21.741,0,32.288,11.193c7.032,7.462,10.476,17.651,10.476,30.638a23.416,23.416,0,0,1-1.148,8.108,12.465,12.465,0,0,1-3.229,5.094,11.351,11.351,0,0,1-4.807,2.655,22.539,22.539,0,0,1-5.955.789H476.8a34.2,34.2,0,0,0,2.3,12.413,21.134,21.134,0,0,0,5.668,8.108,20.776,20.776,0,0,0,8.323,4.449,38.469,38.469,0,0,0,10.189,1.292,47.545,47.545,0,0,0,11.911-1.507,55.806,55.806,0,0,0,10.189-3.588c2.009-.861,3.372-.5,4.162,1.148l5.094,10.763c.861,2.009.431,3.444-1.291,4.377a47.975,47.975,0,0,1-15.714,6.027,82.259,82.259,0,0,1-16.288,1.722q-22.925,0-35.015-12.341C458.218,228.06,454.2,215,454.2,197.207a68.668,68.668,0,0,1,3.372-22.243,48.684,48.684,0,0,1,9.4-16.5A39.958,39.958,0,0,1,481.25,148.2,50.853,50.853,0,0,1,499.547,144.9Zm.359,18.368a19.794,19.794,0,0,0-9.112,2.009,20.817,20.817,0,0,0-6.816,5.381,29.683,29.683,0,0,0-4.52,7.749,26.144,26.144,0,0,0-1.866,9.112h43.553a44.181,44.181,0,0,0-.933-9.471,21.138,21.138,0,0,0-3.3-7.677,16.182,16.182,0,0,0-6.458-5.238A26.2,26.2,0,0,0,499.906,163.268Z" transform="translate(-12721.901 -1056.593)" fill="#fff"/>
    <path id="Path_8573" data-name="Path 8573" d="M413.042,180.138a.725.725,0,0,0,.143.359,4.748,4.748,0,0,1,0,4.592,4.55,4.55,0,0,1-3.946,2.3h-.5a15.481,15.481,0,0,1-1.937-.359v63.931c0,1.363.287,2.3.861,2.655a5.32,5.32,0,0,0,2.727.574h14.566a5.865,5.865,0,0,0,2.942-.574c.574-.359.861-1.292.861-2.655V171.6a86.43,86.43,0,0,1-10.619,5.166C413.545,178.7,413.042,180.138,413.042,180.138Z" transform="translate(-12708.513 -1064.135)" fill="#fff"/>
    <path id="Path_8574" data-name="Path 8574" d="M429.864,68.59a14.666,14.666,0,0,0-12.485-6.1c-.144,0-.144-.143-.072-.215,9.471-5.31,5.884-22.6-4.592-25.544a17,17,0,0,0-5.955-.574c-1.937-3.946-7.606-9.758-14.278-9.758-7.39,0-11.193,7.677-11.193,9.9,0,2.3.789,4.736,3.731,4.736s6.242-4.736,12.987-4.736a15.418,15.418,0,0,1,4.305.718c-6.673,2.224-11.839,8.036-11.839,14.924a14.663,14.663,0,0,0,8.538,13.418c.143.072.072.215,0,.215C379.351,70.527,374.4,81.792,374.4,86.528s.646,10.4,9.113,13.561,17.149,5.812,17.149,12.557-9.615,12.7-9.615,21.454c0,6.314,4.807,7.749,7.462,8.108a.813.813,0,0,0,.789-1.22c-1.65-2.87-.359-6.1,6.673-9.112,8.036-3.444,11.911-5.31,19.66-11.911s13.059-18.3,13.059-27.624S435.532,75.765,429.864,68.59Z" transform="translate(-12699.358 -1023.119)" fill="#ff8a74"/>
    <g id="Group_3050" data-name="Group 3050" transform="translate(-12365.571 -797.321)">
      <g id="Group_3049" data-name="Group 3049" transform="translate(0 0)">
        <path id="Path_8575" data-name="Path 8575" d="M322.679,317.728l-.43,1.148a2.033,2.033,0,0,1-1.937,1.579,2.43,2.43,0,0,1-1.937-.789,2.854,2.854,0,0,1-.574-1.435,2.817,2.817,0,0,1,.287-1.292l4.664-10.26A2.421,2.421,0,0,1,324.9,305.1a2.315,2.315,0,0,1,2.153,1.579l4.736,10.26a2.816,2.816,0,0,1,.287,1.292,2.634,2.634,0,0,1-.574,1.435,2.069,2.069,0,0,1-1.937.789,1.957,1.957,0,0,1-1.937-1.579l-.431-1.148Zm3.3-3.659-1-2.655-1,2.655Z" transform="translate(-317.8 -304.526)" fill="#fff"/>
        <path id="Path_8576" data-name="Path 8576" d="M343.639,308.688v9.758c0,1.292-.718,2.009-2.224,2.009s-2.224-.646-2.224-2.009v-9.758h-2.3a1.794,1.794,0,0,1,0-3.588h9.113a1.794,1.794,0,0,1,0,3.588Z" transform="translate(-322.687 -304.526)" fill="#fff"/>
        <path id="Path_8577" data-name="Path 8577" d="M369.019,309.936l2.511-3.3a3,3,0,0,1,2.44-1.435c.933,0,1.507.215,1.794.717a2.725,2.725,0,0,1,.43,1.292,3.48,3.48,0,0,1-.43,1.435l-4.664,6.027V318.4c0,1.292-.717,2.009-2.224,2.009s-2.224-.646-2.224-2.009v-3.731l-4.52-6.027a3.208,3.208,0,0,1-.43-1.435,2.5,2.5,0,0,1,.43-1.292,2.107,2.107,0,0,1,1.794-.717,3.081,3.081,0,0,1,2.439,1.435Z" transform="translate(-330.201 -304.554)" fill="#fff"/>
        <path id="Path_8578" data-name="Path 8578" d="M399.388,312.336a7.617,7.617,0,0,1-2.3,5.74,8.308,8.308,0,0,1-5.884,2.224,7.841,7.841,0,0,1-5.812-2.224,7.617,7.617,0,0,1-2.3-5.74,7.748,7.748,0,0,1,8.18-8.036,8.008,8.008,0,0,1,5.884,2.224A8.132,8.132,0,0,1,399.388,312.336Zm-5.381-2.87a3.675,3.675,0,0,0-2.727-1.148,3.332,3.332,0,0,0-2.727,1.148,4.021,4.021,0,0,0-1,2.87,4.366,4.366,0,0,0,1,2.87,3.675,3.675,0,0,0,2.727,1.148,3.332,3.332,0,0,0,2.727-1.148,3.909,3.909,0,0,0,1-2.87A4.366,4.366,0,0,0,394.006,309.466Z" transform="translate(-336.246 -304.3)" fill="#fff"/>
        <path id="Path_8579" data-name="Path 8579" d="M419.2,316.165a3.541,3.541,0,0,1-1.866,3.229,8.255,8.255,0,0,1-4.233,1.076,8.443,8.443,0,0,1-4.233-1.076A3.541,3.541,0,0,1,407,316.165v-9.256c0-1.292.718-2.009,2.224-2.009s2.224.646,2.224,2.009v8.538c0,.861.5,1.292,1.579,1.292,1,0,1.579-.431,1.579-1.292v-8.538c0-1.292.718-2.009,2.224-2.009s2.224.646,2.224,2.009v9.256Z" transform="translate(-342.997 -304.469)" fill="#fff"/>
        <path id="Path_8580" data-name="Path 8580" d="M435.1,313.826l2.224,2.942a2.193,2.193,0,0,1,.5,1.435,1.767,1.767,0,0,1-.933,1.435,2.551,2.551,0,0,1-1.65.717,1.767,1.767,0,0,1-1.435-.933l-3.659-4.879v3.875c0,1.292-.718,2.009-2.224,2.009s-2.224-.646-2.224-2.009V307.009c0-1.291.718-2.009,2.224-2.009h5.094a4.1,4.1,0,0,1,3.157,1.435,4.453,4.453,0,0,1,1.22,3.085A4.587,4.587,0,0,1,435.1,313.826Zm-4.951-5.74V311.6h1.291q1.937,0,1.937-1.722t-1.937-1.722h-1.291Z" transform="translate(-348.28 -304.498)" fill="#fff"/>
        <path id="Path_8581" data-name="Path 8581" d="M457.914,320.257a12.21,12.21,0,0,1-4.233-.718,2.567,2.567,0,0,1-2.081-2.511c0-1.22.574-1.794,1.65-1.794a12.883,12.883,0,0,1,1.937.646,8.077,8.077,0,0,0,2.87.646c.789,0,1.22-.359,1.22-1,0-.431-.287-.789-.861-1.148a12.484,12.484,0,0,0-2.3-.933c-1-.359-1.579-.574-1.866-.718a3.794,3.794,0,0,1-1.722-3.372,4.923,4.923,0,0,1,1.435-3.587,4.864,4.864,0,0,1,3.3-1.363,12.392,12.392,0,0,1,3.372.43c1.794.574,2.511,1.363,2.152,2.511-.359,1.076-1,1.579-1.865,1.507a9.906,9.906,0,0,1-1.363-.43,7.438,7.438,0,0,0-2.224-.5c-.646,0-.933.287-.933.933,0,.431.287.718.789,1.076a12.482,12.482,0,0,0,2.3.933,8.665,8.665,0,0,1,1.865.789,3.961,3.961,0,0,1,1.722,3.516,4.813,4.813,0,0,1-1.507,3.731A5.037,5.037,0,0,1,457.914,320.257Z" transform="translate(-355.596 -304.328)" fill="#fff"/>
        <path id="Path_8582" data-name="Path 8582" d="M471.224,320.327c-1.507,0-2.224-.646-2.224-2.009V306.909c0-1.292.718-2.009,2.224-2.009h5.453c1.148,0,1.722.574,1.722,1.794s-.574,1.794-1.722,1.794h-3.229v2.224h2.727c1.148,0,1.722.574,1.722,1.794s-.574,1.794-1.722,1.794h-2.727v2.3h3.229c1.148,0,1.722.574,1.722,1.794s-.574,1.794-1.722,1.794h-5.453Z" transform="translate(-360.512 -304.469)" fill="#fff"/>
        <path id="Path_8583" data-name="Path 8583" d="M493.2,313.826l2.224,2.942a2.193,2.193,0,0,1,.5,1.435,1.767,1.767,0,0,1-.933,1.435,2.55,2.55,0,0,1-1.65.717,1.767,1.767,0,0,1-1.435-.933l-3.659-4.879v3.875c0,1.292-.718,2.009-2.224,2.009s-2.224-.646-2.224-2.009V307.009c0-1.291.718-2.009,2.224-2.009h5.094a4.094,4.094,0,0,1,3.157,1.435,4.452,4.452,0,0,1,1.22,3.085A4.587,4.587,0,0,1,493.2,313.826Zm-4.951-5.74V311.6h1.291q1.937,0,1.937-1.722t-1.937-1.722h-1.291Z" transform="translate(-364.692 -304.498)" fill="#fff"/>
        <path id="Path_8584" data-name="Path 8584" d="M508.947,320.4c-.933,0-1.578-.574-2.152-1.65l-4.736-10.26a3.51,3.51,0,0,1-.359-1.363,3.21,3.21,0,0,1,.43-1.435c.287-.574.933-.789,1.866-.789a2.315,2.315,0,0,1,2.153,1.579l2.726,6.027,2.727-6.027a2.315,2.315,0,0,1,2.153-1.579,2.013,2.013,0,0,1,1.865.789,3.208,3.208,0,0,1,.43,1.435,3.51,3.51,0,0,1-.359,1.363l-4.736,10.26A2.026,2.026,0,0,1,508.947,320.4Z" transform="translate(-369.749 -304.469)" fill="#fff"/>
        <path id="Path_8585" data-name="Path 8585" d="M527.649,318.418c0,1.292-.718,2.009-2.224,2.009s-2.224-.646-2.224-2.009V307.009c0-1.291.717-2.009,2.224-2.009s2.224.646,2.224,2.009Z" transform="translate(-375.822 -304.498)" fill="#fff"/>
        <path id="Path_8586" data-name="Path 8586" d="M545.078,317.431c0,.574-.43,1.148-1.291,1.866s-2.511,1-4.879,1a7.841,7.841,0,0,1-5.812-2.224,7.617,7.617,0,0,1-2.3-5.74,7.748,7.748,0,0,1,8.18-8.036c2.44,0,4.018.359,4.879,1,.861.717,1.291,1.291,1.291,1.865a2,2,0,0,1-.574,1.435,1.6,1.6,0,0,1-1.22.646,6.4,6.4,0,0,1-2.081-.5,6.339,6.339,0,0,0-2.152-.5c-2.583,0-3.8,1.292-3.8,3.946s1.291,3.946,3.8,3.946a6.711,6.711,0,0,0,2.152-.5,6.822,6.822,0,0,1,2.081-.5,1.6,1.6,0,0,1,1.22.646A3.659,3.659,0,0,1,545.078,317.431Z" transform="translate(-377.969 -304.3)" fill="#fff"/>
        <path id="Path_8587" data-name="Path 8587" d="M554.524,320.327c-1.507,0-2.224-.646-2.224-2.009V306.909c0-1.292.718-2.009,2.224-2.009h5.453c1.148,0,1.722.574,1.722,1.794s-.574,1.794-1.722,1.794h-3.229v2.224h2.726c1.148,0,1.722.574,1.722,1.794s-.574,1.794-1.722,1.794h-2.726v2.3h3.229c1.148,0,1.722.574,1.722,1.794s-.574,1.794-1.722,1.794h-5.453Z" transform="translate(-384.042 -304.469)" fill="#fff"/>
      </g>
    </g>
  </g>
</svg>
